; ModuleID = 'nsichneu_small.bc'
target datalayout = "e-p:32:32:32-i1:8:8-i8:8:8-i16:16:16-i32:32:32-i64:32:64-f32:32:32-f64:32:64-v64:64:64-v128:128:128-a0:0:64-f80:32:32"
target triple = "i386-pc-linux-gnu"

@P1_is_marked = global i32 3                      ; <i32*> [#uses=19]
@P2_is_marked = global i32 5                      ; <i32*> [#uses=43]
@P3_is_marked = global i32 0                      ; <i32*> [#uses=121]
@.str = private constant [13 x i8] c"P1_is_marked\00", align 1 ; <[13 x i8]*> [#uses=1]
@.str1 = private constant [13 x i8] c"P2_is_marked\00", align 1 ; <[13 x i8]*> [#uses=1]
@.str2 = private constant [13 x i8] c"P3_is_marked\00", align 1 ; <[13 x i8]*> [#uses=1]
@P1_marking_member_0 = common global [3 x i32] zeroinitializer ; <[3 x i32]*> [#uses=3]
@P3_marking_member_0 = common global [6 x i32] zeroinitializer ; <[6 x i32]*> [#uses=60]
@P2_marking_member_0 = common global [5 x i32] zeroinitializer ; <[5 x i32]*> [#uses=4]

define i32 @main() nounwind {
entry:
  %retval = alloca i32                            ; <i32*> [#uses=1]
  %c = alloca i32                                 ; <i32*> [#uses=2]
  %b = alloca i32                                 ; <i32*> [#uses=4]
  %a = alloca i32                                 ; <i32*> [#uses=4]
  %c1 = alloca i32                                ; <i32*> [#uses=2]
  %b2 = alloca i32                                ; <i32*> [#uses=4]
  %a3 = alloca i32                                ; <i32*> [#uses=4]
  %c4 = alloca i32                                ; <i32*> [#uses=2]
  %b5 = alloca i32                                ; <i32*> [#uses=4]
  %a6 = alloca i32                                ; <i32*> [#uses=4]
  %c7 = alloca i32                                ; <i32*> [#uses=2]
  %b8 = alloca i32                                ; <i32*> [#uses=4]
  %a9 = alloca i32                                ; <i32*> [#uses=4]
  %c10 = alloca i32                               ; <i32*> [#uses=2]
  %b11 = alloca i32                               ; <i32*> [#uses=4]
  %a12 = alloca i32                               ; <i32*> [#uses=4]
  %c13 = alloca i32                               ; <i32*> [#uses=2]
  %b14 = alloca i32                               ; <i32*> [#uses=4]
  %a15 = alloca i32                               ; <i32*> [#uses=4]
  %c16 = alloca i32                               ; <i32*> [#uses=2]
  %b17 = alloca i32                               ; <i32*> [#uses=4]
  %a18 = alloca i32                               ; <i32*> [#uses=4]
  %c19 = alloca i32                               ; <i32*> [#uses=2]
  %b20 = alloca i32                               ; <i32*> [#uses=4]
  %a21 = alloca i32                               ; <i32*> [#uses=4]
  %c22 = alloca i32                               ; <i32*> [#uses=2]
  %b23 = alloca i32                               ; <i32*> [#uses=4]
  %a24 = alloca i32                               ; <i32*> [#uses=4]
  %c25 = alloca i32                               ; <i32*> [#uses=2]
  %b26 = alloca i32                               ; <i32*> [#uses=4]
  %a27 = alloca i32                               ; <i32*> [#uses=4]
  %c28 = alloca i32                               ; <i32*> [#uses=2]
  %b29 = alloca i32                               ; <i32*> [#uses=4]
  %a30 = alloca i32                               ; <i32*> [#uses=4]
  %c31 = alloca i32                               ; <i32*> [#uses=2]
  %b32 = alloca i32                               ; <i32*> [#uses=4]
  %a33 = alloca i32                               ; <i32*> [#uses=4]
  %c34 = alloca i32                               ; <i32*> [#uses=2]
  %b35 = alloca i32                               ; <i32*> [#uses=4]
  %a36 = alloca i32                               ; <i32*> [#uses=4]
  %c37 = alloca i32                               ; <i32*> [#uses=2]
  %b38 = alloca i32                               ; <i32*> [#uses=4]
  %a39 = alloca i32                               ; <i32*> [#uses=4]
  %z = alloca i32                                 ; <i32*> [#uses=2]
  %y = alloca i32                                 ; <i32*> [#uses=4]
  %x = alloca i32                                 ; <i32*> [#uses=4]
  %z40 = alloca i32                               ; <i32*> [#uses=2]
  %y41 = alloca i32                               ; <i32*> [#uses=4]
  %x42 = alloca i32                               ; <i32*> [#uses=4]
  %z43 = alloca i32                               ; <i32*> [#uses=2]
  %y44 = alloca i32                               ; <i32*> [#uses=4]
  %x45 = alloca i32                               ; <i32*> [#uses=4]
  %z46 = alloca i32                               ; <i32*> [#uses=2]
  %y47 = alloca i32                               ; <i32*> [#uses=4]
  %x48 = alloca i32                               ; <i32*> [#uses=4]
  %z49 = alloca i32                               ; <i32*> [#uses=2]
  %y50 = alloca i32                               ; <i32*> [#uses=4]
  %x51 = alloca i32                               ; <i32*> [#uses=4]
  %z52 = alloca i32                               ; <i32*> [#uses=2]
  %y53 = alloca i32                               ; <i32*> [#uses=4]
  %x54 = alloca i32                               ; <i32*> [#uses=4]
  %dummy_i = alloca i32                           ; <i32*> [#uses=5]
  %"alloca point" = bitcast i32 0 to i32          ; <i32> [#uses=0]
  store i32 10, i32* %dummy_i, align 4
  %0 = call i32 (...)* @klee_make_symbolic(i32* @P1_is_marked, i32 4, i8* getelementptr inbounds ([13 x i8]* @.str, i32 0, i32 0)) nounwind ; <i32> [#uses=0]
  %1 = call i32 (...)* @klee_make_symbolic(i32* @P2_is_marked, i32 4, i8* getelementptr inbounds ([13 x i8]* @.str1, i32 0, i32 0)) nounwind ; <i32> [#uses=0]
  %2 = call i32 (...)* @klee_make_symbolic(i32* @P3_is_marked, i32 4, i8* getelementptr inbounds ([13 x i8]* @.str2, i32 0, i32 0)) nounwind ; <i32> [#uses=0]
  br label %bb168

bb:                                               ; preds = %bb168
  %3 = load i32* %dummy_i, align 4                ; <i32> [#uses=1]
  %4 = sub i32 %3, 1                              ; <i32> [#uses=1]
  store i32 %4, i32* %dummy_i, align 4
  %5 = volatile load i32* @P1_is_marked, align 4  ; <i32> [#uses=1]
  %6 = icmp sgt i32 %5, 2                         ; <i1> [#uses=1]
  br i1 %6, label %bb55, label %bb59

bb55:                                             ; preds = %bb
  %7 = volatile load i32* @P3_is_marked, align 4  ; <i32> [#uses=1]
  %8 = add nsw i32 %7, 3                          ; <i32> [#uses=1]
  %9 = icmp sle i32 %8, 6                         ; <i1> [#uses=1]
  br i1 %9, label %bb56, label %bb59

bb56:                                             ; preds = %bb55
  %10 = volatile load i32* getelementptr inbounds ([3 x i32]* @P1_marking_member_0, i32 0, i32 1), align 4 ; <i32> [#uses=1]
  %11 = volatile load i32* getelementptr inbounds ([3 x i32]* @P1_marking_member_0, i32 0, i32 2), align 4 ; <i32> [#uses=1]
  %12 = icmp eq i32 %10, %11                      ; <i1> [#uses=1]
  br i1 %12, label %bb57, label %bb59

bb57:                                             ; preds = %bb56
  %13 = volatile load i32* getelementptr inbounds ([3 x i32]* @P1_marking_member_0, i32 0, i32 0), align 4 ; <i32> [#uses=1]
  store i32 %13, i32* %x54, align 4
  %14 = volatile load i32* getelementptr inbounds ([3 x i32]* @P1_marking_member_0, i32 0, i32 1), align 4 ; <i32> [#uses=1]
  store i32 %14, i32* %y53, align 4
  %15 = load i32* %x54, align 4                   ; <i32> [#uses=1]
  %16 = load i32* %y53, align 4                   ; <i32> [#uses=1]
  %17 = icmp slt i32 %15, %16                     ; <i1> [#uses=1]
  br i1 %17, label %bb58, label %bb59

bb58:                                             ; preds = %bb57
  %18 = volatile load i32* @P1_is_marked, align 4 ; <i32> [#uses=1]
  %19 = sub i32 %18, 3                            ; <i32> [#uses=1]
  volatile store i32 %19, i32* @P1_is_marked, align 4
  %20 = load i32* %x54, align 4                   ; <i32> [#uses=1]
  %21 = load i32* %y53, align 4                   ; <i32> [#uses=1]
  %22 = sub i32 %20, %21                          ; <i32> [#uses=1]
  store i32 %22, i32* %z52, align 4
  %23 = volatile load i32* @P3_is_marked, align 4 ; <i32> [#uses=1]
  %24 = getelementptr inbounds [6 x i32]* @P3_marking_member_0, i32 0, i32 %23 ; <i32*> [#uses=1]
  %25 = load i32* %x54, align 4                   ; <i32> [#uses=1]
  volatile store i32 %25, i32* %24, align 4
  %26 = volatile load i32* @P3_is_marked, align 4 ; <i32> [#uses=1]
  %27 = add nsw i32 %26, 1                        ; <i32> [#uses=1]
  %28 = getelementptr inbounds [6 x i32]* @P3_marking_member_0, i32 0, i32 %27 ; <i32*> [#uses=1]
  %29 = load i32* %y53, align 4                   ; <i32> [#uses=1]
  volatile store i32 %29, i32* %28, align 4
  %30 = volatile load i32* @P3_is_marked, align 4 ; <i32> [#uses=1]
  %31 = add nsw i32 %30, 2                        ; <i32> [#uses=1]
  %32 = getelementptr inbounds [6 x i32]* @P3_marking_member_0, i32 0, i32 %31 ; <i32*> [#uses=1]
  %33 = load i32* %z52, align 4                   ; <i32> [#uses=1]
  volatile store i32 %33, i32* %32, align 4
  %34 = volatile load i32* @P3_is_marked, align 4 ; <i32> [#uses=1]
  %35 = add nsw i32 %34, 3                        ; <i32> [#uses=1]
  volatile store i32 %35, i32* @P3_is_marked, align 4
  br label %bb59

bb59:                                             ; preds = %bb58, %bb57, %bb56, %bb55, %bb
  %36 = volatile load i32* @P1_is_marked, align 4 ; <i32> [#uses=1]
  %37 = icmp sgt i32 %36, 2                       ; <i1> [#uses=1]
  br i1 %37, label %bb60, label %bb64

bb60:                                             ; preds = %bb59
  %38 = volatile load i32* @P3_is_marked, align 4 ; <i32> [#uses=1]
  %39 = add nsw i32 %38, 3                        ; <i32> [#uses=1]
  %40 = icmp sle i32 %39, 6                       ; <i1> [#uses=1]
  br i1 %40, label %bb61, label %bb64

bb61:                                             ; preds = %bb60
  %41 = volatile load i32* getelementptr inbounds ([3 x i32]* @P1_marking_member_0, i32 0, i32 2), align 4 ; <i32> [#uses=1]
  %42 = volatile load i32* getelementptr inbounds ([3 x i32]* @P1_marking_member_0, i32 0, i32 1), align 4 ; <i32> [#uses=1]
  %43 = icmp eq i32 %41, %42                      ; <i1> [#uses=1]
  br i1 %43, label %bb62, label %bb64

bb62:                                             ; preds = %bb61
  %44 = volatile load i32* getelementptr inbounds ([3 x i32]* @P1_marking_member_0, i32 0, i32 0), align 4 ; <i32> [#uses=1]
  store i32 %44, i32* %x51, align 4
  %45 = volatile load i32* getelementptr inbounds ([3 x i32]* @P1_marking_member_0, i32 0, i32 2), align 4 ; <i32> [#uses=1]
  store i32 %45, i32* %y50, align 4
  %46 = load i32* %x51, align 4                   ; <i32> [#uses=1]
  %47 = load i32* %y50, align 4                   ; <i32> [#uses=1]
  %48 = icmp slt i32 %46, %47                     ; <i1> [#uses=1]
  br i1 %48, label %bb63, label %bb64

bb63:                                             ; preds = %bb62
  %49 = volatile load i32* @P1_is_marked, align 4 ; <i32> [#uses=1]
  %50 = sub i32 %49, 3                            ; <i32> [#uses=1]
  volatile store i32 %50, i32* @P1_is_marked, align 4
  %51 = load i32* %x51, align 4                   ; <i32> [#uses=1]
  %52 = load i32* %y50, align 4                   ; <i32> [#uses=1]
  %53 = sub i32 %51, %52                          ; <i32> [#uses=1]
  store i32 %53, i32* %z49, align 4
  %54 = volatile load i32* @P3_is_marked, align 4 ; <i32> [#uses=1]
  %55 = getelementptr inbounds [6 x i32]* @P3_marking_member_0, i32 0, i32 %54 ; <i32*> [#uses=1]
  %56 = load i32* %x51, align 4                   ; <i32> [#uses=1]
  volatile store i32 %56, i32* %55, align 4
  %57 = volatile load i32* @P3_is_marked, align 4 ; <i32> [#uses=1]
  %58 = add nsw i32 %57, 1                        ; <i32> [#uses=1]
  %59 = getelementptr inbounds [6 x i32]* @P3_marking_member_0, i32 0, i32 %58 ; <i32*> [#uses=1]
  %60 = load i32* %y50, align 4                   ; <i32> [#uses=1]
  volatile store i32 %60, i32* %59, align 4
  %61 = volatile load i32* @P3_is_marked, align 4 ; <i32> [#uses=1]
  %62 = add nsw i32 %61, 2                        ; <i32> [#uses=1]
  %63 = getelementptr inbounds [6 x i32]* @P3_marking_member_0, i32 0, i32 %62 ; <i32*> [#uses=1]
  %64 = load i32* %z49, align 4                   ; <i32> [#uses=1]
  volatile store i32 %64, i32* %63, align 4
  %65 = volatile load i32* @P3_is_marked, align 4 ; <i32> [#uses=1]
  %66 = add nsw i32 %65, 3                        ; <i32> [#uses=1]
  volatile store i32 %66, i32* @P3_is_marked, align 4
  br label %bb64

bb64:                                             ; preds = %bb63, %bb62, %bb61, %bb60, %bb59
  %67 = volatile load i32* @P1_is_marked, align 4 ; <i32> [#uses=1]
  %68 = icmp sgt i32 %67, 2                       ; <i1> [#uses=1]
  br i1 %68, label %bb65, label %bb69

bb65:                                             ; preds = %bb64
  %69 = volatile load i32* @P3_is_marked, align 4 ; <i32> [#uses=1]
  %70 = add nsw i32 %69, 3                        ; <i32> [#uses=1]
  %71 = icmp sle i32 %70, 6                       ; <i1> [#uses=1]
  br i1 %71, label %bb66, label %bb69

bb66:                                             ; preds = %bb65
  %72 = volatile load i32* getelementptr inbounds ([3 x i32]* @P1_marking_member_0, i32 0, i32 0), align 4 ; <i32> [#uses=1]
  %73 = volatile load i32* getelementptr inbounds ([3 x i32]* @P1_marking_member_0, i32 0, i32 2), align 4 ; <i32> [#uses=1]
  %74 = icmp eq i32 %72, %73                      ; <i1> [#uses=1]
  br i1 %74, label %bb67, label %bb69

bb67:                                             ; preds = %bb66
  %75 = volatile load i32* getelementptr inbounds ([3 x i32]* @P1_marking_member_0, i32 0, i32 1), align 4 ; <i32> [#uses=1]
  store i32 %75, i32* %x48, align 4
  %76 = volatile load i32* getelementptr inbounds ([3 x i32]* @P1_marking_member_0, i32 0, i32 0), align 4 ; <i32> [#uses=1]
  store i32 %76, i32* %y47, align 4
  %77 = load i32* %x48, align 4                   ; <i32> [#uses=1]
  %78 = load i32* %y47, align 4                   ; <i32> [#uses=1]
  %79 = icmp slt i32 %77, %78                     ; <i1> [#uses=1]
  br i1 %79, label %bb68, label %bb69

bb68:                                             ; preds = %bb67
  %80 = volatile load i32* @P1_is_marked, align 4 ; <i32> [#uses=1]
  %81 = sub i32 %80, 3                            ; <i32> [#uses=1]
  volatile store i32 %81, i32* @P1_is_marked, align 4
  %82 = load i32* %x48, align 4                   ; <i32> [#uses=1]
  %83 = load i32* %y47, align 4                   ; <i32> [#uses=1]
  %84 = sub i32 %82, %83                          ; <i32> [#uses=1]
  store i32 %84, i32* %z46, align 4
  %85 = volatile load i32* @P3_is_marked, align 4 ; <i32> [#uses=1]
  %86 = getelementptr inbounds [6 x i32]* @P3_marking_member_0, i32 0, i32 %85 ; <i32*> [#uses=1]
  %87 = load i32* %x48, align 4                   ; <i32> [#uses=1]
  volatile store i32 %87, i32* %86, align 4
  %88 = volatile load i32* @P3_is_marked, align 4 ; <i32> [#uses=1]
  %89 = add nsw i32 %88, 1                        ; <i32> [#uses=1]
  %90 = getelementptr inbounds [6 x i32]* @P3_marking_member_0, i32 0, i32 %89 ; <i32*> [#uses=1]
  %91 = load i32* %y47, align 4                   ; <i32> [#uses=1]
  volatile store i32 %91, i32* %90, align 4
  %92 = volatile load i32* @P3_is_marked, align 4 ; <i32> [#uses=1]
  %93 = add nsw i32 %92, 2                        ; <i32> [#uses=1]
  %94 = getelementptr inbounds [6 x i32]* @P3_marking_member_0, i32 0, i32 %93 ; <i32*> [#uses=1]
  %95 = load i32* %z46, align 4                   ; <i32> [#uses=1]
  volatile store i32 %95, i32* %94, align 4
  %96 = volatile load i32* @P3_is_marked, align 4 ; <i32> [#uses=1]
  %97 = add nsw i32 %96, 3                        ; <i32> [#uses=1]
  volatile store i32 %97, i32* @P3_is_marked, align 4
  br label %bb69

bb69:                                             ; preds = %bb68, %bb67, %bb66, %bb65, %bb64
  %98 = volatile load i32* @P1_is_marked, align 4 ; <i32> [#uses=1]
  %99 = icmp sgt i32 %98, 2                       ; <i1> [#uses=1]
  br i1 %99, label %bb70, label %bb74

bb70:                                             ; preds = %bb69
  %100 = volatile load i32* @P3_is_marked, align 4 ; <i32> [#uses=1]
  %101 = add nsw i32 %100, 3                      ; <i32> [#uses=1]
  %102 = icmp sle i32 %101, 6                     ; <i1> [#uses=1]
  br i1 %102, label %bb71, label %bb74

bb71:                                             ; preds = %bb70
  %103 = volatile load i32* getelementptr inbounds ([3 x i32]* @P1_marking_member_0, i32 0, i32 2), align 4 ; <i32> [#uses=1]
  %104 = volatile load i32* getelementptr inbounds ([3 x i32]* @P1_marking_member_0, i32 0, i32 0), align 4 ; <i32> [#uses=1]
  %105 = icmp eq i32 %103, %104                   ; <i1> [#uses=1]
  br i1 %105, label %bb72, label %bb74

bb72:                                             ; preds = %bb71
  %106 = volatile load i32* getelementptr inbounds ([3 x i32]* @P1_marking_member_0, i32 0, i32 1), align 4 ; <i32> [#uses=1]
  store i32 %106, i32* %x45, align 4
  %107 = volatile load i32* getelementptr inbounds ([3 x i32]* @P1_marking_member_0, i32 0, i32 2), align 4 ; <i32> [#uses=1]
  store i32 %107, i32* %y44, align 4
  %108 = load i32* %x45, align 4                  ; <i32> [#uses=1]
  %109 = load i32* %y44, align 4                  ; <i32> [#uses=1]
  %110 = icmp slt i32 %108, %109                  ; <i1> [#uses=1]
  br i1 %110, label %bb73, label %bb74

bb73:                                             ; preds = %bb72
  %111 = volatile load i32* @P1_is_marked, align 4 ; <i32> [#uses=1]
  %112 = sub i32 %111, 3                          ; <i32> [#uses=1]
  volatile store i32 %112, i32* @P1_is_marked, align 4
  %113 = load i32* %x45, align 4                  ; <i32> [#uses=1]
  %114 = load i32* %y44, align 4                  ; <i32> [#uses=1]
  %115 = sub i32 %113, %114                       ; <i32> [#uses=1]
  store i32 %115, i32* %z43, align 4
  %116 = volatile load i32* @P3_is_marked, align 4 ; <i32> [#uses=1]
  %117 = getelementptr inbounds [6 x i32]* @P3_marking_member_0, i32 0, i32 %116 ; <i32*> [#uses=1]
  %118 = load i32* %x45, align 4                  ; <i32> [#uses=1]
  volatile store i32 %118, i32* %117, align 4
  %119 = volatile load i32* @P3_is_marked, align 4 ; <i32> [#uses=1]
  %120 = add nsw i32 %119, 1                      ; <i32> [#uses=1]
  %121 = getelementptr inbounds [6 x i32]* @P3_marking_member_0, i32 0, i32 %120 ; <i32*> [#uses=1]
  %122 = load i32* %y44, align 4                  ; <i32> [#uses=1]
  volatile store i32 %122, i32* %121, align 4
  %123 = volatile load i32* @P3_is_marked, align 4 ; <i32> [#uses=1]
  %124 = add nsw i32 %123, 2                      ; <i32> [#uses=1]
  %125 = getelementptr inbounds [6 x i32]* @P3_marking_member_0, i32 0, i32 %124 ; <i32*> [#uses=1]
  %126 = load i32* %z43, align 4                  ; <i32> [#uses=1]
  volatile store i32 %126, i32* %125, align 4
  %127 = volatile load i32* @P3_is_marked, align 4 ; <i32> [#uses=1]
  %128 = add nsw i32 %127, 3                      ; <i32> [#uses=1]
  volatile store i32 %128, i32* @P3_is_marked, align 4
  br label %bb74

bb74:                                             ; preds = %bb73, %bb72, %bb71, %bb70, %bb69
  %129 = volatile load i32* @P1_is_marked, align 4 ; <i32> [#uses=1]
  %130 = icmp sgt i32 %129, 2                     ; <i1> [#uses=1]
  br i1 %130, label %bb75, label %bb79

bb75:                                             ; preds = %bb74
  %131 = volatile load i32* @P3_is_marked, align 4 ; <i32> [#uses=1]
  %132 = add nsw i32 %131, 3                      ; <i32> [#uses=1]
  %133 = icmp sle i32 %132, 6                     ; <i1> [#uses=1]
  br i1 %133, label %bb76, label %bb79

bb76:                                             ; preds = %bb75
  %134 = volatile load i32* getelementptr inbounds ([3 x i32]* @P1_marking_member_0, i32 0, i32 0), align 4 ; <i32> [#uses=1]
  %135 = volatile load i32* getelementptr inbounds ([3 x i32]* @P1_marking_member_0, i32 0, i32 1), align 4 ; <i32> [#uses=1]
  %136 = icmp eq i32 %134, %135                   ; <i1> [#uses=1]
  br i1 %136, label %bb77, label %bb79

bb77:                                             ; preds = %bb76
  %137 = volatile load i32* getelementptr inbounds ([3 x i32]* @P1_marking_member_0, i32 0, i32 2), align 4 ; <i32> [#uses=1]
  store i32 %137, i32* %x42, align 4
  %138 = volatile load i32* getelementptr inbounds ([3 x i32]* @P1_marking_member_0, i32 0, i32 0), align 4 ; <i32> [#uses=1]
  store i32 %138, i32* %y41, align 4
  %139 = load i32* %x42, align 4                  ; <i32> [#uses=1]
  %140 = load i32* %y41, align 4                  ; <i32> [#uses=1]
  %141 = icmp slt i32 %139, %140                  ; <i1> [#uses=1]
  br i1 %141, label %bb78, label %bb79

bb78:                                             ; preds = %bb77
  %142 = volatile load i32* @P1_is_marked, align 4 ; <i32> [#uses=1]
  %143 = sub i32 %142, 3                          ; <i32> [#uses=1]
  volatile store i32 %143, i32* @P1_is_marked, align 4
  %144 = load i32* %x42, align 4                  ; <i32> [#uses=1]
  %145 = load i32* %y41, align 4                  ; <i32> [#uses=1]
  %146 = sub i32 %144, %145                       ; <i32> [#uses=1]
  store i32 %146, i32* %z40, align 4
  %147 = volatile load i32* @P3_is_marked, align 4 ; <i32> [#uses=1]
  %148 = getelementptr inbounds [6 x i32]* @P3_marking_member_0, i32 0, i32 %147 ; <i32*> [#uses=1]
  %149 = load i32* %x42, align 4                  ; <i32> [#uses=1]
  volatile store i32 %149, i32* %148, align 4
  %150 = volatile load i32* @P3_is_marked, align 4 ; <i32> [#uses=1]
  %151 = add nsw i32 %150, 1                      ; <i32> [#uses=1]
  %152 = getelementptr inbounds [6 x i32]* @P3_marking_member_0, i32 0, i32 %151 ; <i32*> [#uses=1]
  %153 = load i32* %y41, align 4                  ; <i32> [#uses=1]
  volatile store i32 %153, i32* %152, align 4
  %154 = volatile load i32* @P3_is_marked, align 4 ; <i32> [#uses=1]
  %155 = add nsw i32 %154, 2                      ; <i32> [#uses=1]
  %156 = getelementptr inbounds [6 x i32]* @P3_marking_member_0, i32 0, i32 %155 ; <i32*> [#uses=1]
  %157 = load i32* %z40, align 4                  ; <i32> [#uses=1]
  volatile store i32 %157, i32* %156, align 4
  %158 = volatile load i32* @P3_is_marked, align 4 ; <i32> [#uses=1]
  %159 = add nsw i32 %158, 3                      ; <i32> [#uses=1]
  volatile store i32 %159, i32* @P3_is_marked, align 4
  br label %bb79

bb79:                                             ; preds = %bb78, %bb77, %bb76, %bb75, %bb74
  %160 = volatile load i32* @P1_is_marked, align 4 ; <i32> [#uses=1]
  %161 = icmp sgt i32 %160, 2                     ; <i1> [#uses=1]
  br i1 %161, label %bb80, label %bb84

bb80:                                             ; preds = %bb79
  %162 = volatile load i32* @P3_is_marked, align 4 ; <i32> [#uses=1]
  %163 = add nsw i32 %162, 3                      ; <i32> [#uses=1]
  %164 = icmp sle i32 %163, 6                     ; <i1> [#uses=1]
  br i1 %164, label %bb81, label %bb84

bb81:                                             ; preds = %bb80
  %165 = volatile load i32* getelementptr inbounds ([3 x i32]* @P1_marking_member_0, i32 0, i32 1), align 4 ; <i32> [#uses=1]
  %166 = volatile load i32* getelementptr inbounds ([3 x i32]* @P1_marking_member_0, i32 0, i32 0), align 4 ; <i32> [#uses=1]
  %167 = icmp eq i32 %165, %166                   ; <i1> [#uses=1]
  br i1 %167, label %bb82, label %bb84

bb82:                                             ; preds = %bb81
  %168 = volatile load i32* getelementptr inbounds ([3 x i32]* @P1_marking_member_0, i32 0, i32 2), align 4 ; <i32> [#uses=1]
  store i32 %168, i32* %x, align 4
  %169 = volatile load i32* getelementptr inbounds ([3 x i32]* @P1_marking_member_0, i32 0, i32 1), align 4 ; <i32> [#uses=1]
  store i32 %169, i32* %y, align 4
  %170 = load i32* %x, align 4                    ; <i32> [#uses=1]
  %171 = load i32* %y, align 4                    ; <i32> [#uses=1]
  %172 = icmp slt i32 %170, %171                  ; <i1> [#uses=1]
  br i1 %172, label %bb83, label %bb84

bb83:                                             ; preds = %bb82
  %173 = volatile load i32* @P1_is_marked, align 4 ; <i32> [#uses=1]
  %174 = sub i32 %173, 3                          ; <i32> [#uses=1]
  volatile store i32 %174, i32* @P1_is_marked, align 4
  %175 = load i32* %x, align 4                    ; <i32> [#uses=1]
  %176 = load i32* %y, align 4                    ; <i32> [#uses=1]
  %177 = sub i32 %175, %176                       ; <i32> [#uses=1]
  store i32 %177, i32* %z, align 4
  %178 = volatile load i32* @P3_is_marked, align 4 ; <i32> [#uses=1]
  %179 = getelementptr inbounds [6 x i32]* @P3_marking_member_0, i32 0, i32 %178 ; <i32*> [#uses=1]
  %180 = load i32* %x, align 4                    ; <i32> [#uses=1]
  volatile store i32 %180, i32* %179, align 4
  %181 = volatile load i32* @P3_is_marked, align 4 ; <i32> [#uses=1]
  %182 = add nsw i32 %181, 1                      ; <i32> [#uses=1]
  %183 = getelementptr inbounds [6 x i32]* @P3_marking_member_0, i32 0, i32 %182 ; <i32*> [#uses=1]
  %184 = load i32* %y, align 4                    ; <i32> [#uses=1]
  volatile store i32 %184, i32* %183, align 4
  %185 = volatile load i32* @P3_is_marked, align 4 ; <i32> [#uses=1]
  %186 = add nsw i32 %185, 2                      ; <i32> [#uses=1]
  %187 = getelementptr inbounds [6 x i32]* @P3_marking_member_0, i32 0, i32 %186 ; <i32*> [#uses=1]
  %188 = load i32* %z, align 4                    ; <i32> [#uses=1]
  volatile store i32 %188, i32* %187, align 4
  %189 = volatile load i32* @P3_is_marked, align 4 ; <i32> [#uses=1]
  %190 = add nsw i32 %189, 3                      ; <i32> [#uses=1]
  volatile store i32 %190, i32* @P3_is_marked, align 4
  br label %bb84

bb84:                                             ; preds = %bb83, %bb82, %bb81, %bb80, %bb79
  %191 = volatile load i32* @P2_is_marked, align 4 ; <i32> [#uses=1]
  %192 = icmp sgt i32 %191, 3                     ; <i1> [#uses=1]
  br i1 %192, label %bb85, label %bb90

bb85:                                             ; preds = %bb84
  %193 = volatile load i32* @P3_is_marked, align 4 ; <i32> [#uses=1]
  %194 = add nsw i32 %193, 3                      ; <i32> [#uses=1]
  %195 = icmp sle i32 %194, 6                     ; <i1> [#uses=1]
  br i1 %195, label %bb86, label %bb90

bb86:                                             ; preds = %bb85
  %196 = volatile load i32* getelementptr inbounds ([5 x i32]* @P2_marking_member_0, i32 0, i32 1), align 4 ; <i32> [#uses=1]
  %197 = volatile load i32* getelementptr inbounds ([5 x i32]* @P2_marking_member_0, i32 0, i32 2), align 4 ; <i32> [#uses=1]
  %198 = icmp eq i32 %196, %197                   ; <i1> [#uses=1]
  br i1 %198, label %bb87, label %bb90

bb87:                                             ; preds = %bb86
  %199 = volatile load i32* getelementptr inbounds ([5 x i32]* @P2_marking_member_0, i32 0, i32 1), align 4 ; <i32> [#uses=1]
  %200 = volatile load i32* getelementptr inbounds ([5 x i32]* @P2_marking_member_0, i32 0, i32 3), align 4 ; <i32> [#uses=1]
  %201 = icmp eq i32 %199, %200                   ; <i1> [#uses=1]
  br i1 %201, label %bb88, label %bb90

bb88:                                             ; preds = %bb87
  %202 = volatile load i32* getelementptr inbounds ([5 x i32]* @P2_marking_member_0, i32 0, i32 0), align 4 ; <i32> [#uses=1]
  store i32 %202, i32* %a39, align 4
  %203 = volatile load i32* getelementptr inbounds ([5 x i32]* @P2_marking_member_0, i32 0, i32 1), align 4 ; <i32> [#uses=1]
  store i32 %203, i32* %b38, align 4
  %204 = load i32* %b38, align 4                  ; <i32> [#uses=1]
  %205 = load i32* %a39, align 4                  ; <i32> [#uses=1]
  %206 = icmp sgt i32 %204, %205                  ; <i1> [#uses=1]
  br i1 %206, label %bb89, label %bb90

bb89:                                             ; preds = %bb88
  %207 = volatile load i32* @P2_is_marked, align 4 ; <i32> [#uses=1]
  %208 = sub i32 %207, 4                          ; <i32> [#uses=1]
  volatile store i32 %208, i32* @P2_is_marked, align 4
  %209 = load i32* %a39, align 4                  ; <i32> [#uses=1]
  %210 = load i32* %b38, align 4                  ; <i32> [#uses=1]
  %211 = add nsw i32 %209, %210                   ; <i32> [#uses=1]
  store i32 %211, i32* %c37, align 4
  %212 = volatile load i32* @P3_is_marked, align 4 ; <i32> [#uses=1]
  %213 = getelementptr inbounds [6 x i32]* @P3_marking_member_0, i32 0, i32 %212 ; <i32*> [#uses=1]
  %214 = load i32* %a39, align 4                  ; <i32> [#uses=1]
  volatile store i32 %214, i32* %213, align 4
  %215 = volatile load i32* @P3_is_marked, align 4 ; <i32> [#uses=1]
  %216 = add nsw i32 %215, 1                      ; <i32> [#uses=1]
  %217 = getelementptr inbounds [6 x i32]* @P3_marking_member_0, i32 0, i32 %216 ; <i32*> [#uses=1]
  %218 = load i32* %b38, align 4                  ; <i32> [#uses=1]
  volatile store i32 %218, i32* %217, align 4
  %219 = volatile load i32* @P3_is_marked, align 4 ; <i32> [#uses=1]
  %220 = add nsw i32 %219, 2                      ; <i32> [#uses=1]
  %221 = getelementptr inbounds [6 x i32]* @P3_marking_member_0, i32 0, i32 %220 ; <i32*> [#uses=1]
  %222 = load i32* %c37, align 4                  ; <i32> [#uses=1]
  volatile store i32 %222, i32* %221, align 4
  %223 = volatile load i32* @P3_is_marked, align 4 ; <i32> [#uses=1]
  %224 = add nsw i32 %223, 3                      ; <i32> [#uses=1]
  volatile store i32 %224, i32* @P3_is_marked, align 4
  br label %bb90

bb90:                                             ; preds = %bb89, %bb88, %bb87, %bb86, %bb85, %bb84
  %225 = volatile load i32* @P2_is_marked, align 4 ; <i32> [#uses=1]
  %226 = icmp sgt i32 %225, 3                     ; <i1> [#uses=1]
  br i1 %226, label %bb91, label %bb96

bb91:                                             ; preds = %bb90
  %227 = volatile load i32* @P3_is_marked, align 4 ; <i32> [#uses=1]
  %228 = add nsw i32 %227, 3                      ; <i32> [#uses=1]
  %229 = icmp sle i32 %228, 6                     ; <i1> [#uses=1]
  br i1 %229, label %bb92, label %bb96

bb92:                                             ; preds = %bb91
  %230 = volatile load i32* getelementptr inbounds ([5 x i32]* @P2_marking_member_0, i32 0, i32 1), align 4 ; <i32> [#uses=1]
  %231 = volatile load i32* getelementptr inbounds ([5 x i32]* @P2_marking_member_0, i32 0, i32 3), align 4 ; <i32> [#uses=1]
  %232 = icmp eq i32 %230, %231                   ; <i1> [#uses=1]
  br i1 %232, label %bb93, label %bb96

bb93:                                             ; preds = %bb92
  %233 = volatile load i32* getelementptr inbounds ([5 x i32]* @P2_marking_member_0, i32 0, i32 1), align 4 ; <i32> [#uses=1]
  %234 = volatile load i32* getelementptr inbounds ([5 x i32]* @P2_marking_member_0, i32 0, i32 2), align 4 ; <i32> [#uses=1]
  %235 = icmp eq i32 %233, %234                   ; <i1> [#uses=1]
  br i1 %235, label %bb94, label %bb96

bb94:                                             ; preds = %bb93
  %236 = volatile load i32* getelementptr inbounds ([5 x i32]* @P2_marking_member_0, i32 0, i32 0), align 4 ; <i32> [#uses=1]
  store i32 %236, i32* %a36, align 4
  %237 = volatile load i32* getelementptr inbounds ([5 x i32]* @P2_marking_member_0, i32 0, i32 1), align 4 ; <i32> [#uses=1]
  store i32 %237, i32* %b35, align 4
  %238 = load i32* %b35, align 4                  ; <i32> [#uses=1]
  %239 = load i32* %a36, align 4                  ; <i32> [#uses=1]
  %240 = icmp sgt i32 %238, %239                  ; <i1> [#uses=1]
  br i1 %240, label %bb95, label %bb96

bb95:                                             ; preds = %bb94
  %241 = volatile load i32* @P2_is_marked, align 4 ; <i32> [#uses=1]
  %242 = sub i32 %241, 4                          ; <i32> [#uses=1]
  volatile store i32 %242, i32* @P2_is_marked, align 4
  %243 = load i32* %a36, align 4                  ; <i32> [#uses=1]
  %244 = load i32* %b35, align 4                  ; <i32> [#uses=1]
  %245 = add nsw i32 %243, %244                   ; <i32> [#uses=1]
  store i32 %245, i32* %c34, align 4
  %246 = volatile load i32* @P3_is_marked, align 4 ; <i32> [#uses=1]
  %247 = getelementptr inbounds [6 x i32]* @P3_marking_member_0, i32 0, i32 %246 ; <i32*> [#uses=1]
  %248 = load i32* %a36, align 4                  ; <i32> [#uses=1]
  volatile store i32 %248, i32* %247, align 4
  %249 = volatile load i32* @P3_is_marked, align 4 ; <i32> [#uses=1]
  %250 = add nsw i32 %249, 1                      ; <i32> [#uses=1]
  %251 = getelementptr inbounds [6 x i32]* @P3_marking_member_0, i32 0, i32 %250 ; <i32*> [#uses=1]
  %252 = load i32* %b35, align 4                  ; <i32> [#uses=1]
  volatile store i32 %252, i32* %251, align 4
  %253 = volatile load i32* @P3_is_marked, align 4 ; <i32> [#uses=1]
  %254 = add nsw i32 %253, 2                      ; <i32> [#uses=1]
  %255 = getelementptr inbounds [6 x i32]* @P3_marking_member_0, i32 0, i32 %254 ; <i32*> [#uses=1]
  %256 = load i32* %c34, align 4                  ; <i32> [#uses=1]
  volatile store i32 %256, i32* %255, align 4
  %257 = volatile load i32* @P3_is_marked, align 4 ; <i32> [#uses=1]
  %258 = add nsw i32 %257, 3                      ; <i32> [#uses=1]
  volatile store i32 %258, i32* @P3_is_marked, align 4
  br label %bb96

bb96:                                             ; preds = %bb95, %bb94, %bb93, %bb92, %bb91, %bb90
  %259 = volatile load i32* @P2_is_marked, align 4 ; <i32> [#uses=1]
  %260 = icmp sgt i32 %259, 3                     ; <i1> [#uses=1]
  br i1 %260, label %bb97, label %bb102

bb97:                                             ; preds = %bb96
  %261 = volatile load i32* @P3_is_marked, align 4 ; <i32> [#uses=1]
  %262 = add nsw i32 %261, 3                      ; <i32> [#uses=1]
  %263 = icmp sle i32 %262, 6                     ; <i1> [#uses=1]
  br i1 %263, label %bb98, label %bb102

bb98:                                             ; preds = %bb97
  %264 = volatile load i32* getelementptr inbounds ([5 x i32]* @P2_marking_member_0, i32 0, i32 2), align 4 ; <i32> [#uses=1]
  %265 = volatile load i32* getelementptr inbounds ([5 x i32]* @P2_marking_member_0, i32 0, i32 1), align 4 ; <i32> [#uses=1]
  %266 = icmp eq i32 %264, %265                   ; <i1> [#uses=1]
  br i1 %266, label %bb99, label %bb102

bb99:                                             ; preds = %bb98
  %267 = volatile load i32* getelementptr inbounds ([5 x i32]* @P2_marking_member_0, i32 0, i32 2), align 4 ; <i32> [#uses=1]
  %268 = volatile load i32* getelementptr inbounds ([5 x i32]* @P2_marking_member_0, i32 0, i32 3), align 4 ; <i32> [#uses=1]
  %269 = icmp eq i32 %267, %268                   ; <i1> [#uses=1]
  br i1 %269, label %bb100, label %bb102

bb100:                                            ; preds = %bb99
  %270 = volatile load i32* getelementptr inbounds ([5 x i32]* @P2_marking_member_0, i32 0, i32 0), align 4 ; <i32> [#uses=1]
  store i32 %270, i32* %a33, align 4
  %271 = volatile load i32* getelementptr inbounds ([5 x i32]* @P2_marking_member_0, i32 0, i32 2), align 4 ; <i32> [#uses=1]
  store i32 %271, i32* %b32, align 4
  %272 = load i32* %b32, align 4                  ; <i32> [#uses=1]
  %273 = load i32* %a33, align 4                  ; <i32> [#uses=1]
  %274 = icmp sgt i32 %272, %273                  ; <i1> [#uses=1]
  br i1 %274, label %bb101, label %bb102

bb101:                                            ; preds = %bb100
  %275 = volatile load i32* @P2_is_marked, align 4 ; <i32> [#uses=1]
  %276 = sub i32 %275, 4                          ; <i32> [#uses=1]
  volatile store i32 %276, i32* @P2_is_marked, align 4
  %277 = load i32* %a33, align 4                  ; <i32> [#uses=1]
  %278 = load i32* %b32, align 4                  ; <i32> [#uses=1]
  %279 = add nsw i32 %277, %278                   ; <i32> [#uses=1]
  store i32 %279, i32* %c31, align 4
  %280 = volatile load i32* @P3_is_marked, align 4 ; <i32> [#uses=1]
  %281 = getelementptr inbounds [6 x i32]* @P3_marking_member_0, i32 0, i32 %280 ; <i32*> [#uses=1]
  %282 = load i32* %a33, align 4                  ; <i32> [#uses=1]
  volatile store i32 %282, i32* %281, align 4
  %283 = volatile load i32* @P3_is_marked, align 4 ; <i32> [#uses=1]
  %284 = add nsw i32 %283, 1                      ; <i32> [#uses=1]
  %285 = getelementptr inbounds [6 x i32]* @P3_marking_member_0, i32 0, i32 %284 ; <i32*> [#uses=1]
  %286 = load i32* %b32, align 4                  ; <i32> [#uses=1]
  volatile store i32 %286, i32* %285, align 4
  %287 = volatile load i32* @P3_is_marked, align 4 ; <i32> [#uses=1]
  %288 = add nsw i32 %287, 2                      ; <i32> [#uses=1]
  %289 = getelementptr inbounds [6 x i32]* @P3_marking_member_0, i32 0, i32 %288 ; <i32*> [#uses=1]
  %290 = load i32* %c31, align 4                  ; <i32> [#uses=1]
  volatile store i32 %290, i32* %289, align 4
  %291 = volatile load i32* @P3_is_marked, align 4 ; <i32> [#uses=1]
  %292 = add nsw i32 %291, 3                      ; <i32> [#uses=1]
  volatile store i32 %292, i32* @P3_is_marked, align 4
  br label %bb102

bb102:                                            ; preds = %bb101, %bb100, %bb99, %bb98, %bb97, %bb96
  %293 = volatile load i32* @P2_is_marked, align 4 ; <i32> [#uses=1]
  %294 = icmp sgt i32 %293, 3                     ; <i1> [#uses=1]
  br i1 %294, label %bb103, label %bb108

bb103:                                            ; preds = %bb102
  %295 = volatile load i32* @P3_is_marked, align 4 ; <i32> [#uses=1]
  %296 = add nsw i32 %295, 3                      ; <i32> [#uses=1]
  %297 = icmp sle i32 %296, 6                     ; <i1> [#uses=1]
  br i1 %297, label %bb104, label %bb108

bb104:                                            ; preds = %bb103
  %298 = volatile load i32* getelementptr inbounds ([5 x i32]* @P2_marking_member_0, i32 0, i32 2), align 4 ; <i32> [#uses=1]
  %299 = volatile load i32* getelementptr inbounds ([5 x i32]* @P2_marking_member_0, i32 0, i32 3), align 4 ; <i32> [#uses=1]
  %300 = icmp eq i32 %298, %299                   ; <i1> [#uses=1]
  br i1 %300, label %bb105, label %bb108

bb105:                                            ; preds = %bb104
  %301 = volatile load i32* getelementptr inbounds ([5 x i32]* @P2_marking_member_0, i32 0, i32 2), align 4 ; <i32> [#uses=1]
  %302 = volatile load i32* getelementptr inbounds ([5 x i32]* @P2_marking_member_0, i32 0, i32 1), align 4 ; <i32> [#uses=1]
  %303 = icmp eq i32 %301, %302                   ; <i1> [#uses=1]
  br i1 %303, label %bb106, label %bb108

bb106:                                            ; preds = %bb105
  %304 = volatile load i32* getelementptr inbounds ([5 x i32]* @P2_marking_member_0, i32 0, i32 0), align 4 ; <i32> [#uses=1]
  store i32 %304, i32* %a30, align 4
  %305 = volatile load i32* getelementptr inbounds ([5 x i32]* @P2_marking_member_0, i32 0, i32 2), align 4 ; <i32> [#uses=1]
  store i32 %305, i32* %b29, align 4
  %306 = load i32* %b29, align 4                  ; <i32> [#uses=1]
  %307 = load i32* %a30, align 4                  ; <i32> [#uses=1]
  %308 = icmp sgt i32 %306, %307                  ; <i1> [#uses=1]
  br i1 %308, label %bb107, label %bb108

bb107:                                            ; preds = %bb106
  %309 = volatile load i32* @P2_is_marked, align 4 ; <i32> [#uses=1]
  %310 = sub i32 %309, 4                          ; <i32> [#uses=1]
  volatile store i32 %310, i32* @P2_is_marked, align 4
  %311 = load i32* %a30, align 4                  ; <i32> [#uses=1]
  %312 = load i32* %b29, align 4                  ; <i32> [#uses=1]
  %313 = add nsw i32 %311, %312                   ; <i32> [#uses=1]
  store i32 %313, i32* %c28, align 4
  %314 = volatile load i32* @P3_is_marked, align 4 ; <i32> [#uses=1]
  %315 = getelementptr inbounds [6 x i32]* @P3_marking_member_0, i32 0, i32 %314 ; <i32*> [#uses=1]
  %316 = load i32* %a30, align 4                  ; <i32> [#uses=1]
  volatile store i32 %316, i32* %315, align 4
  %317 = volatile load i32* @P3_is_marked, align 4 ; <i32> [#uses=1]
  %318 = add nsw i32 %317, 1                      ; <i32> [#uses=1]
  %319 = getelementptr inbounds [6 x i32]* @P3_marking_member_0, i32 0, i32 %318 ; <i32*> [#uses=1]
  %320 = load i32* %b29, align 4                  ; <i32> [#uses=1]
  volatile store i32 %320, i32* %319, align 4
  %321 = volatile load i32* @P3_is_marked, align 4 ; <i32> [#uses=1]
  %322 = add nsw i32 %321, 2                      ; <i32> [#uses=1]
  %323 = getelementptr inbounds [6 x i32]* @P3_marking_member_0, i32 0, i32 %322 ; <i32*> [#uses=1]
  %324 = load i32* %c28, align 4                  ; <i32> [#uses=1]
  volatile store i32 %324, i32* %323, align 4
  %325 = volatile load i32* @P3_is_marked, align 4 ; <i32> [#uses=1]
  %326 = add nsw i32 %325, 3                      ; <i32> [#uses=1]
  volatile store i32 %326, i32* @P3_is_marked, align 4
  br label %bb108

bb108:                                            ; preds = %bb107, %bb106, %bb105, %bb104, %bb103, %bb102
  %327 = volatile load i32* @P2_is_marked, align 4 ; <i32> [#uses=1]
  %328 = icmp sgt i32 %327, 3                     ; <i1> [#uses=1]
  br i1 %328, label %bb109, label %bb114

bb109:                                            ; preds = %bb108
  %329 = volatile load i32* @P3_is_marked, align 4 ; <i32> [#uses=1]
  %330 = add nsw i32 %329, 3                      ; <i32> [#uses=1]
  %331 = icmp sle i32 %330, 6                     ; <i1> [#uses=1]
  br i1 %331, label %bb110, label %bb114

bb110:                                            ; preds = %bb109
  %332 = volatile load i32* getelementptr inbounds ([5 x i32]* @P2_marking_member_0, i32 0, i32 3), align 4 ; <i32> [#uses=1]
  %333 = volatile load i32* getelementptr inbounds ([5 x i32]* @P2_marking_member_0, i32 0, i32 1), align 4 ; <i32> [#uses=1]
  %334 = icmp eq i32 %332, %333                   ; <i1> [#uses=1]
  br i1 %334, label %bb111, label %bb114

bb111:                                            ; preds = %bb110
  %335 = volatile load i32* getelementptr inbounds ([5 x i32]* @P2_marking_member_0, i32 0, i32 3), align 4 ; <i32> [#uses=1]
  %336 = volatile load i32* getelementptr inbounds ([5 x i32]* @P2_marking_member_0, i32 0, i32 2), align 4 ; <i32> [#uses=1]
  %337 = icmp eq i32 %335, %336                   ; <i1> [#uses=1]
  br i1 %337, label %bb112, label %bb114

bb112:                                            ; preds = %bb111
  %338 = volatile load i32* getelementptr inbounds ([5 x i32]* @P2_marking_member_0, i32 0, i32 0), align 4 ; <i32> [#uses=1]
  store i32 %338, i32* %a27, align 4
  %339 = volatile load i32* getelementptr inbounds ([5 x i32]* @P2_marking_member_0, i32 0, i32 3), align 4 ; <i32> [#uses=1]
  store i32 %339, i32* %b26, align 4
  %340 = load i32* %b26, align 4                  ; <i32> [#uses=1]
  %341 = load i32* %a27, align 4                  ; <i32> [#uses=1]
  %342 = icmp sgt i32 %340, %341                  ; <i1> [#uses=1]
  br i1 %342, label %bb113, label %bb114

bb113:                                            ; preds = %bb112
  %343 = volatile load i32* @P2_is_marked, align 4 ; <i32> [#uses=1]
  %344 = sub i32 %343, 4                          ; <i32> [#uses=1]
  volatile store i32 %344, i32* @P2_is_marked, align 4
  %345 = load i32* %a27, align 4                  ; <i32> [#uses=1]
  %346 = load i32* %b26, align 4                  ; <i32> [#uses=1]
  %347 = add nsw i32 %345, %346                   ; <i32> [#uses=1]
  store i32 %347, i32* %c25, align 4
  %348 = volatile load i32* @P3_is_marked, align 4 ; <i32> [#uses=1]
  %349 = getelementptr inbounds [6 x i32]* @P3_marking_member_0, i32 0, i32 %348 ; <i32*> [#uses=1]
  %350 = load i32* %a27, align 4                  ; <i32> [#uses=1]
  volatile store i32 %350, i32* %349, align 4
  %351 = volatile load i32* @P3_is_marked, align 4 ; <i32> [#uses=1]
  %352 = add nsw i32 %351, 1                      ; <i32> [#uses=1]
  %353 = getelementptr inbounds [6 x i32]* @P3_marking_member_0, i32 0, i32 %352 ; <i32*> [#uses=1]
  %354 = load i32* %b26, align 4                  ; <i32> [#uses=1]
  volatile store i32 %354, i32* %353, align 4
  %355 = volatile load i32* @P3_is_marked, align 4 ; <i32> [#uses=1]
  %356 = add nsw i32 %355, 2                      ; <i32> [#uses=1]
  %357 = getelementptr inbounds [6 x i32]* @P3_marking_member_0, i32 0, i32 %356 ; <i32*> [#uses=1]
  %358 = load i32* %c25, align 4                  ; <i32> [#uses=1]
  volatile store i32 %358, i32* %357, align 4
  %359 = volatile load i32* @P3_is_marked, align 4 ; <i32> [#uses=1]
  %360 = add nsw i32 %359, 3                      ; <i32> [#uses=1]
  volatile store i32 %360, i32* @P3_is_marked, align 4
  br label %bb114

bb114:                                            ; preds = %bb113, %bb112, %bb111, %bb110, %bb109, %bb108
  %361 = volatile load i32* @P2_is_marked, align 4 ; <i32> [#uses=1]
  %362 = icmp sgt i32 %361, 3                     ; <i1> [#uses=1]
  br i1 %362, label %bb115, label %bb120

bb115:                                            ; preds = %bb114
  %363 = volatile load i32* @P3_is_marked, align 4 ; <i32> [#uses=1]
  %364 = add nsw i32 %363, 3                      ; <i32> [#uses=1]
  %365 = icmp sle i32 %364, 6                     ; <i1> [#uses=1]
  br i1 %365, label %bb116, label %bb120

bb116:                                            ; preds = %bb115
  %366 = volatile load i32* getelementptr inbounds ([5 x i32]* @P2_marking_member_0, i32 0, i32 3), align 4 ; <i32> [#uses=1]
  %367 = volatile load i32* getelementptr inbounds ([5 x i32]* @P2_marking_member_0, i32 0, i32 2), align 4 ; <i32> [#uses=1]
  %368 = icmp eq i32 %366, %367                   ; <i1> [#uses=1]
  br i1 %368, label %bb117, label %bb120

bb117:                                            ; preds = %bb116
  %369 = volatile load i32* getelementptr inbounds ([5 x i32]* @P2_marking_member_0, i32 0, i32 3), align 4 ; <i32> [#uses=1]
  %370 = volatile load i32* getelementptr inbounds ([5 x i32]* @P2_marking_member_0, i32 0, i32 1), align 4 ; <i32> [#uses=1]
  %371 = icmp eq i32 %369, %370                   ; <i1> [#uses=1]
  br i1 %371, label %bb118, label %bb120

bb118:                                            ; preds = %bb117
  %372 = volatile load i32* getelementptr inbounds ([5 x i32]* @P2_marking_member_0, i32 0, i32 0), align 4 ; <i32> [#uses=1]
  store i32 %372, i32* %a24, align 4
  %373 = volatile load i32* getelementptr inbounds ([5 x i32]* @P2_marking_member_0, i32 0, i32 3), align 4 ; <i32> [#uses=1]
  store i32 %373, i32* %b23, align 4
  %374 = load i32* %b23, align 4                  ; <i32> [#uses=1]
  %375 = load i32* %a24, align 4                  ; <i32> [#uses=1]
  %376 = icmp sgt i32 %374, %375                  ; <i1> [#uses=1]
  br i1 %376, label %bb119, label %bb120

bb119:                                            ; preds = %bb118
  %377 = volatile load i32* @P2_is_marked, align 4 ; <i32> [#uses=1]
  %378 = sub i32 %377, 4                          ; <i32> [#uses=1]
  volatile store i32 %378, i32* @P2_is_marked, align 4
  %379 = load i32* %a24, align 4                  ; <i32> [#uses=1]
  %380 = load i32* %b23, align 4                  ; <i32> [#uses=1]
  %381 = add nsw i32 %379, %380                   ; <i32> [#uses=1]
  store i32 %381, i32* %c22, align 4
  %382 = volatile load i32* @P3_is_marked, align 4 ; <i32> [#uses=1]
  %383 = getelementptr inbounds [6 x i32]* @P3_marking_member_0, i32 0, i32 %382 ; <i32*> [#uses=1]
  %384 = load i32* %a24, align 4                  ; <i32> [#uses=1]
  volatile store i32 %384, i32* %383, align 4
  %385 = volatile load i32* @P3_is_marked, align 4 ; <i32> [#uses=1]
  %386 = add nsw i32 %385, 1                      ; <i32> [#uses=1]
  %387 = getelementptr inbounds [6 x i32]* @P3_marking_member_0, i32 0, i32 %386 ; <i32*> [#uses=1]
  %388 = load i32* %b23, align 4                  ; <i32> [#uses=1]
  volatile store i32 %388, i32* %387, align 4
  %389 = volatile load i32* @P3_is_marked, align 4 ; <i32> [#uses=1]
  %390 = add nsw i32 %389, 2                      ; <i32> [#uses=1]
  %391 = getelementptr inbounds [6 x i32]* @P3_marking_member_0, i32 0, i32 %390 ; <i32*> [#uses=1]
  %392 = load i32* %c22, align 4                  ; <i32> [#uses=1]
  volatile store i32 %392, i32* %391, align 4
  %393 = volatile load i32* @P3_is_marked, align 4 ; <i32> [#uses=1]
  %394 = add nsw i32 %393, 3                      ; <i32> [#uses=1]
  volatile store i32 %394, i32* @P3_is_marked, align 4
  br label %bb120

bb120:                                            ; preds = %bb119, %bb118, %bb117, %bb116, %bb115, %bb114
  %395 = volatile load i32* @P2_is_marked, align 4 ; <i32> [#uses=1]
  %396 = icmp sgt i32 %395, 3                     ; <i1> [#uses=1]
  br i1 %396, label %bb121, label %bb126

bb121:                                            ; preds = %bb120
  %397 = volatile load i32* @P3_is_marked, align 4 ; <i32> [#uses=1]
  %398 = add nsw i32 %397, 3                      ; <i32> [#uses=1]
  %399 = icmp sle i32 %398, 6                     ; <i1> [#uses=1]
  br i1 %399, label %bb122, label %bb126

bb122:                                            ; preds = %bb121
  %400 = volatile load i32* getelementptr inbounds ([5 x i32]* @P2_marking_member_0, i32 0, i32 0), align 4 ; <i32> [#uses=1]
  %401 = volatile load i32* getelementptr inbounds ([5 x i32]* @P2_marking_member_0, i32 0, i32 2), align 4 ; <i32> [#uses=1]
  %402 = icmp eq i32 %400, %401                   ; <i1> [#uses=1]
  br i1 %402, label %bb123, label %bb126

bb123:                                            ; preds = %bb122
  %403 = volatile load i32* getelementptr inbounds ([5 x i32]* @P2_marking_member_0, i32 0, i32 0), align 4 ; <i32> [#uses=1]
  %404 = volatile load i32* getelementptr inbounds ([5 x i32]* @P2_marking_member_0, i32 0, i32 3), align 4 ; <i32> [#uses=1]
  %405 = icmp eq i32 %403, %404                   ; <i1> [#uses=1]
  br i1 %405, label %bb124, label %bb126

bb124:                                            ; preds = %bb123
  %406 = volatile load i32* getelementptr inbounds ([5 x i32]* @P2_marking_member_0, i32 0, i32 1), align 4 ; <i32> [#uses=1]
  store i32 %406, i32* %a21, align 4
  %407 = volatile load i32* getelementptr inbounds ([5 x i32]* @P2_marking_member_0, i32 0, i32 0), align 4 ; <i32> [#uses=1]
  store i32 %407, i32* %b20, align 4
  %408 = load i32* %b20, align 4                  ; <i32> [#uses=1]
  %409 = load i32* %a21, align 4                  ; <i32> [#uses=1]
  %410 = icmp sgt i32 %408, %409                  ; <i1> [#uses=1]
  br i1 %410, label %bb125, label %bb126

bb125:                                            ; preds = %bb124
  %411 = volatile load i32* @P2_is_marked, align 4 ; <i32> [#uses=1]
  %412 = sub i32 %411, 4                          ; <i32> [#uses=1]
  volatile store i32 %412, i32* @P2_is_marked, align 4
  %413 = load i32* %a21, align 4                  ; <i32> [#uses=1]
  %414 = load i32* %b20, align 4                  ; <i32> [#uses=1]
  %415 = add nsw i32 %413, %414                   ; <i32> [#uses=1]
  store i32 %415, i32* %c19, align 4
  %416 = volatile load i32* @P3_is_marked, align 4 ; <i32> [#uses=1]
  %417 = getelementptr inbounds [6 x i32]* @P3_marking_member_0, i32 0, i32 %416 ; <i32*> [#uses=1]
  %418 = load i32* %a21, align 4                  ; <i32> [#uses=1]
  volatile store i32 %418, i32* %417, align 4
  %419 = volatile load i32* @P3_is_marked, align 4 ; <i32> [#uses=1]
  %420 = add nsw i32 %419, 1                      ; <i32> [#uses=1]
  %421 = getelementptr inbounds [6 x i32]* @P3_marking_member_0, i32 0, i32 %420 ; <i32*> [#uses=1]
  %422 = load i32* %b20, align 4                  ; <i32> [#uses=1]
  volatile store i32 %422, i32* %421, align 4
  %423 = volatile load i32* @P3_is_marked, align 4 ; <i32> [#uses=1]
  %424 = add nsw i32 %423, 2                      ; <i32> [#uses=1]
  %425 = getelementptr inbounds [6 x i32]* @P3_marking_member_0, i32 0, i32 %424 ; <i32*> [#uses=1]
  %426 = load i32* %c19, align 4                  ; <i32> [#uses=1]
  volatile store i32 %426, i32* %425, align 4
  %427 = volatile load i32* @P3_is_marked, align 4 ; <i32> [#uses=1]
  %428 = add nsw i32 %427, 3                      ; <i32> [#uses=1]
  volatile store i32 %428, i32* @P3_is_marked, align 4
  br label %bb126

bb126:                                            ; preds = %bb125, %bb124, %bb123, %bb122, %bb121, %bb120
  %429 = volatile load i32* @P2_is_marked, align 4 ; <i32> [#uses=1]
  %430 = icmp sgt i32 %429, 3                     ; <i1> [#uses=1]
  br i1 %430, label %bb127, label %bb132

bb127:                                            ; preds = %bb126
  %431 = volatile load i32* @P3_is_marked, align 4 ; <i32> [#uses=1]
  %432 = add nsw i32 %431, 3                      ; <i32> [#uses=1]
  %433 = icmp sle i32 %432, 6                     ; <i1> [#uses=1]
  br i1 %433, label %bb128, label %bb132

bb128:                                            ; preds = %bb127
  %434 = volatile load i32* getelementptr inbounds ([5 x i32]* @P2_marking_member_0, i32 0, i32 0), align 4 ; <i32> [#uses=1]
  %435 = volatile load i32* getelementptr inbounds ([5 x i32]* @P2_marking_member_0, i32 0, i32 3), align 4 ; <i32> [#uses=1]
  %436 = icmp eq i32 %434, %435                   ; <i1> [#uses=1]
  br i1 %436, label %bb129, label %bb132

bb129:                                            ; preds = %bb128
  %437 = volatile load i32* getelementptr inbounds ([5 x i32]* @P2_marking_member_0, i32 0, i32 0), align 4 ; <i32> [#uses=1]
  %438 = volatile load i32* getelementptr inbounds ([5 x i32]* @P2_marking_member_0, i32 0, i32 2), align 4 ; <i32> [#uses=1]
  %439 = icmp eq i32 %437, %438                   ; <i1> [#uses=1]
  br i1 %439, label %bb130, label %bb132

bb130:                                            ; preds = %bb129
  %440 = volatile load i32* getelementptr inbounds ([5 x i32]* @P2_marking_member_0, i32 0, i32 1), align 4 ; <i32> [#uses=1]
  store i32 %440, i32* %a18, align 4
  %441 = volatile load i32* getelementptr inbounds ([5 x i32]* @P2_marking_member_0, i32 0, i32 0), align 4 ; <i32> [#uses=1]
  store i32 %441, i32* %b17, align 4
  %442 = load i32* %b17, align 4                  ; <i32> [#uses=1]
  %443 = load i32* %a18, align 4                  ; <i32> [#uses=1]
  %444 = icmp sgt i32 %442, %443                  ; <i1> [#uses=1]
  br i1 %444, label %bb131, label %bb132

bb131:                                            ; preds = %bb130
  %445 = volatile load i32* @P2_is_marked, align 4 ; <i32> [#uses=1]
  %446 = sub i32 %445, 4                          ; <i32> [#uses=1]
  volatile store i32 %446, i32* @P2_is_marked, align 4
  %447 = load i32* %a18, align 4                  ; <i32> [#uses=1]
  %448 = load i32* %b17, align 4                  ; <i32> [#uses=1]
  %449 = add nsw i32 %447, %448                   ; <i32> [#uses=1]
  store i32 %449, i32* %c16, align 4
  %450 = volatile load i32* @P3_is_marked, align 4 ; <i32> [#uses=1]
  %451 = getelementptr inbounds [6 x i32]* @P3_marking_member_0, i32 0, i32 %450 ; <i32*> [#uses=1]
  %452 = load i32* %a18, align 4                  ; <i32> [#uses=1]
  volatile store i32 %452, i32* %451, align 4
  %453 = volatile load i32* @P3_is_marked, align 4 ; <i32> [#uses=1]
  %454 = add nsw i32 %453, 1                      ; <i32> [#uses=1]
  %455 = getelementptr inbounds [6 x i32]* @P3_marking_member_0, i32 0, i32 %454 ; <i32*> [#uses=1]
  %456 = load i32* %b17, align 4                  ; <i32> [#uses=1]
  volatile store i32 %456, i32* %455, align 4
  %457 = volatile load i32* @P3_is_marked, align 4 ; <i32> [#uses=1]
  %458 = add nsw i32 %457, 2                      ; <i32> [#uses=1]
  %459 = getelementptr inbounds [6 x i32]* @P3_marking_member_0, i32 0, i32 %458 ; <i32*> [#uses=1]
  %460 = load i32* %c16, align 4                  ; <i32> [#uses=1]
  volatile store i32 %460, i32* %459, align 4
  %461 = volatile load i32* @P3_is_marked, align 4 ; <i32> [#uses=1]
  %462 = add nsw i32 %461, 3                      ; <i32> [#uses=1]
  volatile store i32 %462, i32* @P3_is_marked, align 4
  br label %bb132

bb132:                                            ; preds = %bb131, %bb130, %bb129, %bb128, %bb127, %bb126
  %463 = volatile load i32* @P2_is_marked, align 4 ; <i32> [#uses=1]
  %464 = icmp sgt i32 %463, 3                     ; <i1> [#uses=1]
  br i1 %464, label %bb133, label %bb138

bb133:                                            ; preds = %bb132
  %465 = volatile load i32* @P3_is_marked, align 4 ; <i32> [#uses=1]
  %466 = add nsw i32 %465, 3                      ; <i32> [#uses=1]
  %467 = icmp sle i32 %466, 6                     ; <i1> [#uses=1]
  br i1 %467, label %bb134, label %bb138

bb134:                                            ; preds = %bb133
  %468 = volatile load i32* getelementptr inbounds ([5 x i32]* @P2_marking_member_0, i32 0, i32 2), align 4 ; <i32> [#uses=1]
  %469 = volatile load i32* getelementptr inbounds ([5 x i32]* @P2_marking_member_0, i32 0, i32 0), align 4 ; <i32> [#uses=1]
  %470 = icmp eq i32 %468, %469                   ; <i1> [#uses=1]
  br i1 %470, label %bb135, label %bb138

bb135:                                            ; preds = %bb134
  %471 = volatile load i32* getelementptr inbounds ([5 x i32]* @P2_marking_member_0, i32 0, i32 2), align 4 ; <i32> [#uses=1]
  %472 = volatile load i32* getelementptr inbounds ([5 x i32]* @P2_marking_member_0, i32 0, i32 3), align 4 ; <i32> [#uses=1]
  %473 = icmp eq i32 %471, %472                   ; <i1> [#uses=1]
  br i1 %473, label %bb136, label %bb138

bb136:                                            ; preds = %bb135
  %474 = volatile load i32* getelementptr inbounds ([5 x i32]* @P2_marking_member_0, i32 0, i32 1), align 4 ; <i32> [#uses=1]
  store i32 %474, i32* %a15, align 4
  %475 = volatile load i32* getelementptr inbounds ([5 x i32]* @P2_marking_member_0, i32 0, i32 2), align 4 ; <i32> [#uses=1]
  store i32 %475, i32* %b14, align 4
  %476 = load i32* %b14, align 4                  ; <i32> [#uses=1]
  %477 = load i32* %a15, align 4                  ; <i32> [#uses=1]
  %478 = icmp sgt i32 %476, %477                  ; <i1> [#uses=1]
  br i1 %478, label %bb137, label %bb138

bb137:                                            ; preds = %bb136
  %479 = volatile load i32* @P2_is_marked, align 4 ; <i32> [#uses=1]
  %480 = sub i32 %479, 4                          ; <i32> [#uses=1]
  volatile store i32 %480, i32* @P2_is_marked, align 4
  %481 = load i32* %a15, align 4                  ; <i32> [#uses=1]
  %482 = load i32* %b14, align 4                  ; <i32> [#uses=1]
  %483 = add nsw i32 %481, %482                   ; <i32> [#uses=1]
  store i32 %483, i32* %c13, align 4
  %484 = volatile load i32* @P3_is_marked, align 4 ; <i32> [#uses=1]
  %485 = getelementptr inbounds [6 x i32]* @P3_marking_member_0, i32 0, i32 %484 ; <i32*> [#uses=1]
  %486 = load i32* %a15, align 4                  ; <i32> [#uses=1]
  volatile store i32 %486, i32* %485, align 4
  %487 = volatile load i32* @P3_is_marked, align 4 ; <i32> [#uses=1]
  %488 = add nsw i32 %487, 1                      ; <i32> [#uses=1]
  %489 = getelementptr inbounds [6 x i32]* @P3_marking_member_0, i32 0, i32 %488 ; <i32*> [#uses=1]
  %490 = load i32* %b14, align 4                  ; <i32> [#uses=1]
  volatile store i32 %490, i32* %489, align 4
  %491 = volatile load i32* @P3_is_marked, align 4 ; <i32> [#uses=1]
  %492 = add nsw i32 %491, 2                      ; <i32> [#uses=1]
  %493 = getelementptr inbounds [6 x i32]* @P3_marking_member_0, i32 0, i32 %492 ; <i32*> [#uses=1]
  %494 = load i32* %c13, align 4                  ; <i32> [#uses=1]
  volatile store i32 %494, i32* %493, align 4
  %495 = volatile load i32* @P3_is_marked, align 4 ; <i32> [#uses=1]
  %496 = add nsw i32 %495, 3                      ; <i32> [#uses=1]
  volatile store i32 %496, i32* @P3_is_marked, align 4
  br label %bb138

bb138:                                            ; preds = %bb137, %bb136, %bb135, %bb134, %bb133, %bb132
  %497 = volatile load i32* @P2_is_marked, align 4 ; <i32> [#uses=1]
  %498 = icmp sgt i32 %497, 3                     ; <i1> [#uses=1]
  br i1 %498, label %bb139, label %bb144

bb139:                                            ; preds = %bb138
  %499 = volatile load i32* @P3_is_marked, align 4 ; <i32> [#uses=1]
  %500 = add nsw i32 %499, 3                      ; <i32> [#uses=1]
  %501 = icmp sle i32 %500, 6                     ; <i1> [#uses=1]
  br i1 %501, label %bb140, label %bb144

bb140:                                            ; preds = %bb139
  %502 = volatile load i32* getelementptr inbounds ([5 x i32]* @P2_marking_member_0, i32 0, i32 2), align 4 ; <i32> [#uses=1]
  %503 = volatile load i32* getelementptr inbounds ([5 x i32]* @P2_marking_member_0, i32 0, i32 3), align 4 ; <i32> [#uses=1]
  %504 = icmp eq i32 %502, %503                   ; <i1> [#uses=1]
  br i1 %504, label %bb141, label %bb144

bb141:                                            ; preds = %bb140
  %505 = volatile load i32* getelementptr inbounds ([5 x i32]* @P2_marking_member_0, i32 0, i32 2), align 4 ; <i32> [#uses=1]
  %506 = volatile load i32* getelementptr inbounds ([5 x i32]* @P2_marking_member_0, i32 0, i32 0), align 4 ; <i32> [#uses=1]
  %507 = icmp eq i32 %505, %506                   ; <i1> [#uses=1]
  br i1 %507, label %bb142, label %bb144

bb142:                                            ; preds = %bb141
  %508 = volatile load i32* getelementptr inbounds ([5 x i32]* @P2_marking_member_0, i32 0, i32 1), align 4 ; <i32> [#uses=1]
  store i32 %508, i32* %a12, align 4
  %509 = volatile load i32* getelementptr inbounds ([5 x i32]* @P2_marking_member_0, i32 0, i32 2), align 4 ; <i32> [#uses=1]
  store i32 %509, i32* %b11, align 4
  %510 = load i32* %b11, align 4                  ; <i32> [#uses=1]
  %511 = load i32* %a12, align 4                  ; <i32> [#uses=1]
  %512 = icmp sgt i32 %510, %511                  ; <i1> [#uses=1]
  br i1 %512, label %bb143, label %bb144

bb143:                                            ; preds = %bb142
  %513 = volatile load i32* @P2_is_marked, align 4 ; <i32> [#uses=1]
  %514 = sub i32 %513, 4                          ; <i32> [#uses=1]
  volatile store i32 %514, i32* @P2_is_marked, align 4
  %515 = load i32* %a12, align 4                  ; <i32> [#uses=1]
  %516 = load i32* %b11, align 4                  ; <i32> [#uses=1]
  %517 = add nsw i32 %515, %516                   ; <i32> [#uses=1]
  store i32 %517, i32* %c10, align 4
  %518 = volatile load i32* @P3_is_marked, align 4 ; <i32> [#uses=1]
  %519 = getelementptr inbounds [6 x i32]* @P3_marking_member_0, i32 0, i32 %518 ; <i32*> [#uses=1]
  %520 = load i32* %a12, align 4                  ; <i32> [#uses=1]
  volatile store i32 %520, i32* %519, align 4
  %521 = volatile load i32* @P3_is_marked, align 4 ; <i32> [#uses=1]
  %522 = add nsw i32 %521, 1                      ; <i32> [#uses=1]
  %523 = getelementptr inbounds [6 x i32]* @P3_marking_member_0, i32 0, i32 %522 ; <i32*> [#uses=1]
  %524 = load i32* %b11, align 4                  ; <i32> [#uses=1]
  volatile store i32 %524, i32* %523, align 4
  %525 = volatile load i32* @P3_is_marked, align 4 ; <i32> [#uses=1]
  %526 = add nsw i32 %525, 2                      ; <i32> [#uses=1]
  %527 = getelementptr inbounds [6 x i32]* @P3_marking_member_0, i32 0, i32 %526 ; <i32*> [#uses=1]
  %528 = load i32* %c10, align 4                  ; <i32> [#uses=1]
  volatile store i32 %528, i32* %527, align 4
  %529 = volatile load i32* @P3_is_marked, align 4 ; <i32> [#uses=1]
  %530 = add nsw i32 %529, 3                      ; <i32> [#uses=1]
  volatile store i32 %530, i32* @P3_is_marked, align 4
  br label %bb144

bb144:                                            ; preds = %bb143, %bb142, %bb141, %bb140, %bb139, %bb138
  %531 = volatile load i32* @P2_is_marked, align 4 ; <i32> [#uses=1]
  %532 = icmp sgt i32 %531, 3                     ; <i1> [#uses=1]
  br i1 %532, label %bb145, label %bb150

bb145:                                            ; preds = %bb144
  %533 = volatile load i32* @P3_is_marked, align 4 ; <i32> [#uses=1]
  %534 = add nsw i32 %533, 3                      ; <i32> [#uses=1]
  %535 = icmp sle i32 %534, 6                     ; <i1> [#uses=1]
  br i1 %535, label %bb146, label %bb150

bb146:                                            ; preds = %bb145
  %536 = volatile load i32* getelementptr inbounds ([5 x i32]* @P2_marking_member_0, i32 0, i32 3), align 4 ; <i32> [#uses=1]
  %537 = volatile load i32* getelementptr inbounds ([5 x i32]* @P2_marking_member_0, i32 0, i32 0), align 4 ; <i32> [#uses=1]
  %538 = icmp eq i32 %536, %537                   ; <i1> [#uses=1]
  br i1 %538, label %bb147, label %bb150

bb147:                                            ; preds = %bb146
  %539 = volatile load i32* getelementptr inbounds ([5 x i32]* @P2_marking_member_0, i32 0, i32 3), align 4 ; <i32> [#uses=1]
  %540 = volatile load i32* getelementptr inbounds ([5 x i32]* @P2_marking_member_0, i32 0, i32 2), align 4 ; <i32> [#uses=1]
  %541 = icmp eq i32 %539, %540                   ; <i1> [#uses=1]
  br i1 %541, label %bb148, label %bb150

bb148:                                            ; preds = %bb147
  %542 = volatile load i32* getelementptr inbounds ([5 x i32]* @P2_marking_member_0, i32 0, i32 1), align 4 ; <i32> [#uses=1]
  store i32 %542, i32* %a9, align 4
  %543 = volatile load i32* getelementptr inbounds ([5 x i32]* @P2_marking_member_0, i32 0, i32 3), align 4 ; <i32> [#uses=1]
  store i32 %543, i32* %b8, align 4
  %544 = load i32* %b8, align 4                   ; <i32> [#uses=1]
  %545 = load i32* %a9, align 4                   ; <i32> [#uses=1]
  %546 = icmp sgt i32 %544, %545                  ; <i1> [#uses=1]
  br i1 %546, label %bb149, label %bb150

bb149:                                            ; preds = %bb148
  %547 = volatile load i32* @P2_is_marked, align 4 ; <i32> [#uses=1]
  %548 = sub i32 %547, 4                          ; <i32> [#uses=1]
  volatile store i32 %548, i32* @P2_is_marked, align 4
  %549 = load i32* %a9, align 4                   ; <i32> [#uses=1]
  %550 = load i32* %b8, align 4                   ; <i32> [#uses=1]
  %551 = add nsw i32 %549, %550                   ; <i32> [#uses=1]
  store i32 %551, i32* %c7, align 4
  %552 = volatile load i32* @P3_is_marked, align 4 ; <i32> [#uses=1]
  %553 = getelementptr inbounds [6 x i32]* @P3_marking_member_0, i32 0, i32 %552 ; <i32*> [#uses=1]
  %554 = load i32* %a9, align 4                   ; <i32> [#uses=1]
  volatile store i32 %554, i32* %553, align 4
  %555 = volatile load i32* @P3_is_marked, align 4 ; <i32> [#uses=1]
  %556 = add nsw i32 %555, 1                      ; <i32> [#uses=1]
  %557 = getelementptr inbounds [6 x i32]* @P3_marking_member_0, i32 0, i32 %556 ; <i32*> [#uses=1]
  %558 = load i32* %b8, align 4                   ; <i32> [#uses=1]
  volatile store i32 %558, i32* %557, align 4
  %559 = volatile load i32* @P3_is_marked, align 4 ; <i32> [#uses=1]
  %560 = add nsw i32 %559, 2                      ; <i32> [#uses=1]
  %561 = getelementptr inbounds [6 x i32]* @P3_marking_member_0, i32 0, i32 %560 ; <i32*> [#uses=1]
  %562 = load i32* %c7, align 4                   ; <i32> [#uses=1]
  volatile store i32 %562, i32* %561, align 4
  %563 = volatile load i32* @P3_is_marked, align 4 ; <i32> [#uses=1]
  %564 = add nsw i32 %563, 3                      ; <i32> [#uses=1]
  volatile store i32 %564, i32* @P3_is_marked, align 4
  br label %bb150

bb150:                                            ; preds = %bb149, %bb148, %bb147, %bb146, %bb145, %bb144
  %565 = volatile load i32* @P2_is_marked, align 4 ; <i32> [#uses=1]
  %566 = icmp sgt i32 %565, 3                     ; <i1> [#uses=1]
  br i1 %566, label %bb151, label %bb156

bb151:                                            ; preds = %bb150
  %567 = volatile load i32* @P3_is_marked, align 4 ; <i32> [#uses=1]
  %568 = add nsw i32 %567, 3                      ; <i32> [#uses=1]
  %569 = icmp sle i32 %568, 6                     ; <i1> [#uses=1]
  br i1 %569, label %bb152, label %bb156

bb152:                                            ; preds = %bb151
  %570 = volatile load i32* getelementptr inbounds ([5 x i32]* @P2_marking_member_0, i32 0, i32 3), align 4 ; <i32> [#uses=1]
  %571 = volatile load i32* getelementptr inbounds ([5 x i32]* @P2_marking_member_0, i32 0, i32 2), align 4 ; <i32> [#uses=1]
  %572 = icmp eq i32 %570, %571                   ; <i1> [#uses=1]
  br i1 %572, label %bb153, label %bb156

bb153:                                            ; preds = %bb152
  %573 = volatile load i32* getelementptr inbounds ([5 x i32]* @P2_marking_member_0, i32 0, i32 3), align 4 ; <i32> [#uses=1]
  %574 = volatile load i32* getelementptr inbounds ([5 x i32]* @P2_marking_member_0, i32 0, i32 0), align 4 ; <i32> [#uses=1]
  %575 = icmp eq i32 %573, %574                   ; <i1> [#uses=1]
  br i1 %575, label %bb154, label %bb156

bb154:                                            ; preds = %bb153
  %576 = volatile load i32* getelementptr inbounds ([5 x i32]* @P2_marking_member_0, i32 0, i32 1), align 4 ; <i32> [#uses=1]
  store i32 %576, i32* %a6, align 4
  %577 = volatile load i32* getelementptr inbounds ([5 x i32]* @P2_marking_member_0, i32 0, i32 3), align 4 ; <i32> [#uses=1]
  store i32 %577, i32* %b5, align 4
  %578 = load i32* %b5, align 4                   ; <i32> [#uses=1]
  %579 = load i32* %a6, align 4                   ; <i32> [#uses=1]
  %580 = icmp sgt i32 %578, %579                  ; <i1> [#uses=1]
  br i1 %580, label %bb155, label %bb156

bb155:                                            ; preds = %bb154
  %581 = volatile load i32* @P2_is_marked, align 4 ; <i32> [#uses=1]
  %582 = sub i32 %581, 4                          ; <i32> [#uses=1]
  volatile store i32 %582, i32* @P2_is_marked, align 4
  %583 = load i32* %a6, align 4                   ; <i32> [#uses=1]
  %584 = load i32* %b5, align 4                   ; <i32> [#uses=1]
  %585 = add nsw i32 %583, %584                   ; <i32> [#uses=1]
  store i32 %585, i32* %c4, align 4
  %586 = volatile load i32* @P3_is_marked, align 4 ; <i32> [#uses=1]
  %587 = getelementptr inbounds [6 x i32]* @P3_marking_member_0, i32 0, i32 %586 ; <i32*> [#uses=1]
  %588 = load i32* %a6, align 4                   ; <i32> [#uses=1]
  volatile store i32 %588, i32* %587, align 4
  %589 = volatile load i32* @P3_is_marked, align 4 ; <i32> [#uses=1]
  %590 = add nsw i32 %589, 1                      ; <i32> [#uses=1]
  %591 = getelementptr inbounds [6 x i32]* @P3_marking_member_0, i32 0, i32 %590 ; <i32*> [#uses=1]
  %592 = load i32* %b5, align 4                   ; <i32> [#uses=1]
  volatile store i32 %592, i32* %591, align 4
  %593 = volatile load i32* @P3_is_marked, align 4 ; <i32> [#uses=1]
  %594 = add nsw i32 %593, 2                      ; <i32> [#uses=1]
  %595 = getelementptr inbounds [6 x i32]* @P3_marking_member_0, i32 0, i32 %594 ; <i32*> [#uses=1]
  %596 = load i32* %c4, align 4                   ; <i32> [#uses=1]
  volatile store i32 %596, i32* %595, align 4
  %597 = volatile load i32* @P3_is_marked, align 4 ; <i32> [#uses=1]
  %598 = add nsw i32 %597, 3                      ; <i32> [#uses=1]
  volatile store i32 %598, i32* @P3_is_marked, align 4
  br label %bb156

bb156:                                            ; preds = %bb155, %bb154, %bb153, %bb152, %bb151, %bb150
  %599 = volatile load i32* @P2_is_marked, align 4 ; <i32> [#uses=1]
  %600 = icmp sgt i32 %599, 3                     ; <i1> [#uses=1]
  br i1 %600, label %bb157, label %bb162

bb157:                                            ; preds = %bb156
  %601 = volatile load i32* @P3_is_marked, align 4 ; <i32> [#uses=1]
  %602 = add nsw i32 %601, 3                      ; <i32> [#uses=1]
  %603 = icmp sle i32 %602, 6                     ; <i1> [#uses=1]
  br i1 %603, label %bb158, label %bb162

bb158:                                            ; preds = %bb157
  %604 = volatile load i32* getelementptr inbounds ([5 x i32]* @P2_marking_member_0, i32 0, i32 0), align 4 ; <i32> [#uses=1]
  %605 = volatile load i32* getelementptr inbounds ([5 x i32]* @P2_marking_member_0, i32 0, i32 1), align 4 ; <i32> [#uses=1]
  %606 = icmp eq i32 %604, %605                   ; <i1> [#uses=1]
  br i1 %606, label %bb159, label %bb162

bb159:                                            ; preds = %bb158
  %607 = volatile load i32* getelementptr inbounds ([5 x i32]* @P2_marking_member_0, i32 0, i32 0), align 4 ; <i32> [#uses=1]
  %608 = volatile load i32* getelementptr inbounds ([5 x i32]* @P2_marking_member_0, i32 0, i32 3), align 4 ; <i32> [#uses=1]
  %609 = icmp eq i32 %607, %608                   ; <i1> [#uses=1]
  br i1 %609, label %bb160, label %bb162

bb160:                                            ; preds = %bb159
  %610 = volatile load i32* getelementptr inbounds ([5 x i32]* @P2_marking_member_0, i32 0, i32 2), align 4 ; <i32> [#uses=1]
  store i32 %610, i32* %a3, align 4
  %611 = volatile load i32* getelementptr inbounds ([5 x i32]* @P2_marking_member_0, i32 0, i32 0), align 4 ; <i32> [#uses=1]
  store i32 %611, i32* %b2, align 4
  %612 = load i32* %b2, align 4                   ; <i32> [#uses=1]
  %613 = load i32* %a3, align 4                   ; <i32> [#uses=1]
  %614 = icmp sgt i32 %612, %613                  ; <i1> [#uses=1]
  br i1 %614, label %bb161, label %bb162

bb161:                                            ; preds = %bb160
  %615 = volatile load i32* @P2_is_marked, align 4 ; <i32> [#uses=1]
  %616 = sub i32 %615, 4                          ; <i32> [#uses=1]
  volatile store i32 %616, i32* @P2_is_marked, align 4
  %617 = load i32* %a3, align 4                   ; <i32> [#uses=1]
  %618 = load i32* %b2, align 4                   ; <i32> [#uses=1]
  %619 = add nsw i32 %617, %618                   ; <i32> [#uses=1]
  store i32 %619, i32* %c1, align 4
  %620 = volatile load i32* @P3_is_marked, align 4 ; <i32> [#uses=1]
  %621 = getelementptr inbounds [6 x i32]* @P3_marking_member_0, i32 0, i32 %620 ; <i32*> [#uses=1]
  %622 = load i32* %a3, align 4                   ; <i32> [#uses=1]
  volatile store i32 %622, i32* %621, align 4
  %623 = volatile load i32* @P3_is_marked, align 4 ; <i32> [#uses=1]
  %624 = add nsw i32 %623, 1                      ; <i32> [#uses=1]
  %625 = getelementptr inbounds [6 x i32]* @P3_marking_member_0, i32 0, i32 %624 ; <i32*> [#uses=1]
  %626 = load i32* %b2, align 4                   ; <i32> [#uses=1]
  volatile store i32 %626, i32* %625, align 4
  %627 = volatile load i32* @P3_is_marked, align 4 ; <i32> [#uses=1]
  %628 = add nsw i32 %627, 2                      ; <i32> [#uses=1]
  %629 = getelementptr inbounds [6 x i32]* @P3_marking_member_0, i32 0, i32 %628 ; <i32*> [#uses=1]
  %630 = load i32* %c1, align 4                   ; <i32> [#uses=1]
  volatile store i32 %630, i32* %629, align 4
  %631 = volatile load i32* @P3_is_marked, align 4 ; <i32> [#uses=1]
  %632 = add nsw i32 %631, 3                      ; <i32> [#uses=1]
  volatile store i32 %632, i32* @P3_is_marked, align 4
  br label %bb162

bb162:                                            ; preds = %bb161, %bb160, %bb159, %bb158, %bb157, %bb156
  %633 = volatile load i32* @P2_is_marked, align 4 ; <i32> [#uses=1]
  %634 = icmp sgt i32 %633, 3                     ; <i1> [#uses=1]
  br i1 %634, label %bb163, label %bb168

bb163:                                            ; preds = %bb162
  %635 = volatile load i32* @P3_is_marked, align 4 ; <i32> [#uses=1]
  %636 = add nsw i32 %635, 3                      ; <i32> [#uses=1]
  %637 = icmp sle i32 %636, 6                     ; <i1> [#uses=1]
  br i1 %637, label %bb164, label %bb168

bb164:                                            ; preds = %bb163
  %638 = volatile load i32* getelementptr inbounds ([5 x i32]* @P2_marking_member_0, i32 0, i32 0), align 4 ; <i32> [#uses=1]
  %639 = volatile load i32* getelementptr inbounds ([5 x i32]* @P2_marking_member_0, i32 0, i32 3), align 4 ; <i32> [#uses=1]
  %640 = icmp eq i32 %638, %639                   ; <i1> [#uses=1]
  br i1 %640, label %bb165, label %bb168

bb165:                                            ; preds = %bb164
  %641 = volatile load i32* getelementptr inbounds ([5 x i32]* @P2_marking_member_0, i32 0, i32 0), align 4 ; <i32> [#uses=1]
  %642 = volatile load i32* getelementptr inbounds ([5 x i32]* @P2_marking_member_0, i32 0, i32 1), align 4 ; <i32> [#uses=1]
  %643 = icmp eq i32 %641, %642                   ; <i1> [#uses=1]
  br i1 %643, label %bb166, label %bb168

bb166:                                            ; preds = %bb165
  %644 = volatile load i32* getelementptr inbounds ([5 x i32]* @P2_marking_member_0, i32 0, i32 2), align 4 ; <i32> [#uses=1]
  store i32 %644, i32* %a, align 4
  %645 = volatile load i32* getelementptr inbounds ([5 x i32]* @P2_marking_member_0, i32 0, i32 0), align 4 ; <i32> [#uses=1]
  store i32 %645, i32* %b, align 4
  %646 = load i32* %b, align 4                    ; <i32> [#uses=1]
  %647 = load i32* %a, align 4                    ; <i32> [#uses=1]
  %648 = icmp sgt i32 %646, %647                  ; <i1> [#uses=1]
  br i1 %648, label %bb167, label %bb168

bb167:                                            ; preds = %bb166
  %649 = volatile load i32* @P2_is_marked, align 4 ; <i32> [#uses=1]
  %650 = sub i32 %649, 4                          ; <i32> [#uses=1]
  volatile store i32 %650, i32* @P2_is_marked, align 4
  %651 = load i32* %a, align 4                    ; <i32> [#uses=1]
  %652 = load i32* %b, align 4                    ; <i32> [#uses=1]
  %653 = add nsw i32 %651, %652                   ; <i32> [#uses=1]
  store i32 %653, i32* %c, align 4
  %654 = volatile load i32* @P3_is_marked, align 4 ; <i32> [#uses=1]
  %655 = getelementptr inbounds [6 x i32]* @P3_marking_member_0, i32 0, i32 %654 ; <i32*> [#uses=1]
  %656 = load i32* %a, align 4                    ; <i32> [#uses=1]
  volatile store i32 %656, i32* %655, align 4
  %657 = volatile load i32* @P3_is_marked, align 4 ; <i32> [#uses=1]
  %658 = add nsw i32 %657, 1                      ; <i32> [#uses=1]
  %659 = getelementptr inbounds [6 x i32]* @P3_marking_member_0, i32 0, i32 %658 ; <i32*> [#uses=1]
  %660 = load i32* %b, align 4                    ; <i32> [#uses=1]
  volatile store i32 %660, i32* %659, align 4
  %661 = volatile load i32* @P3_is_marked, align 4 ; <i32> [#uses=1]
  %662 = add nsw i32 %661, 2                      ; <i32> [#uses=1]
  %663 = getelementptr inbounds [6 x i32]* @P3_marking_member_0, i32 0, i32 %662 ; <i32*> [#uses=1]
  %664 = load i32* %c, align 4                    ; <i32> [#uses=1]
  volatile store i32 %664, i32* %663, align 4
  %665 = volatile load i32* @P3_is_marked, align 4 ; <i32> [#uses=1]
  %666 = add nsw i32 %665, 3                      ; <i32> [#uses=1]
  volatile store i32 %666, i32* @P3_is_marked, align 4
  br label %bb168

bb168:                                            ; preds = %bb167, %bb166, %bb165, %bb164, %bb163, %bb162, %entry
  %667 = load i32* %dummy_i, align 4              ; <i32> [#uses=1]
  %668 = icmp sgt i32 %667, 0                     ; <i1> [#uses=1]
  br i1 %668, label %bb, label %bb169

bb169:                                            ; preds = %bb168
  store i32 77, i32* %dummy_i, align 4
  br label %return

return:                                           ; preds = %bb169
  %retval170 = load i32* %retval                  ; <i32> [#uses=1]
  ret i32 %retval170
}

declare i32 @klee_make_symbolic(...)
